-------------------------------------------------------------------------------
Test set: com.b2wdigital.pyramid.ApplicationTest
-------------------------------------------------------------------------------
Tests run: 0, Failures: 0, Errors: 0, Skipped: 0, Time elapsed: 0.002 sec
